void main() {
	fNorm(10);
	fOpt(10);
}

void fNorm (int p)
{
	int i, j, z;
	for(i=0; i<100; i++) {
		if (p<100) { j += 1; }
  		if (p<100) { z += 2; }
	}
}

void fOpt (int p)
{
	int i, j, z;
	for(i=0; i<100; i++) {
		if (p<100) {
			j += 1;
			z += 2;
		}
	}
}